E28093=–
C381=Á
C3A1=á
C380=À
C3A0=à
C382=Â
C3A2=â
C383=Ã
C3A3=ã
C384=Ä
C3A4=ä
C385=Å
C3A5=å
C480=Ā
C481=ā
C482=Ă
C483=ă
C484=Ą
C485=ą
C386=Æ
C3A6=æ
C486=Ć
C487=ć
C387=Ç
C3A7=ç
C48C=Č
C48D=č
C48A=Ċ
C48B=ċ
C48E=Ď
C48F=ď
C390=Ð
C3B0=ð
C490=Đ
C491=đ
C7B1=Ǳ
C7B2=ǲ
C7B3=ǳ
C784=Ǆ
C785=ǅ
C786=ǆ
C389=É
C3A9=é
C388=È
C3A8=è
C38A=Ê
C3AA=ê
C38B=Ë
C3AB=ë
C49A=Ě
C49B=ě
C492=Ē
C493=ē
C498=Ę
C499=ę
C496=Ė
C497=ė
C49E=Ğ
C49F=ğ
C4A0=Ġ
C4A1=ġ
C4A2=Ģ
C4A3=ģ
C4A6=Ħ
C4A7=ħ
C38D=Í
C3AD=í
C38C=Ì
C3AC=ì
C38E=Î
C3AE=î
C38F=Ï
C3AF=ï
C4AA=Ī
C4AB=ī
C4AE=Į
C4AF=į
C4B0=İ
C4B1=ı
C4B2=Ĳ
C4B3=ĳ
C4B6=Ķ
C4B7=ķ
C4B9=Ĺ
C4BA=ĺ
C4BD=Ľ
C4BE=ľ
C4BF=Ŀ
C580=ŀ
C581=Ł
C582=ł
C4BB=Ļ
C4BC=ļ
C787=Ǉ
C788=ǈ
C789=ǉ
C583=Ń
C584=ń
C391=Ñ
C3B1=ñ
C585=Ņ
C587=ņ
C587=Ň
C588=ň
C58A=Ŋ
C58B=ŋ
C78A=Ǌ
C78B=ǋ
C78C=ǌ
C393=Ó
C3B3=ó
C392=Ò
C3B2=ò
C394=Ô
C3B4=ô
C395=Õ
C3B5=õ
C396=Ö
C3B6=ö
C590=Ő
C591=ő
C398=Ø
C3B8=ø
C58C=Ō
C58D=ō
C592=Œ
C593=œ
C594=Ŕ
C595=ŕ
C598=Ř
C599=ř
C596=Ŗ
C597=ŗ
059A=Ś
059B=ś
C59E=Ş
C59F=ş
C898=Ş
C899=ş
C5A0=Š
C5A1=š
C39F=ß
C5A2=Ţ
C5A3=ţ
C89A=Ţ
C89B=ţ
C5A4=Ť
C5A5=ť
C39E=Þ
C3BE=þ
C39A=Ú
C3BA=ú
C399=Ù
C3B9=ù
C39B=Û
C3BB=û
C39C=Ü
C3BC=ü
C5B0=Ű
C5B1=ű
C5AE=Ů
C5AF=ů
C5AA=Ū
C5AB=ū
C5B2=Ų
C5B3=ų
C39D=Ý
C3BD=ý
C3BF=Ÿ
C3BF=ÿ
C5B9=Ź
C5BA=ź
C5BD=Ž
C5BE=ž
C5BB=Ż
C5BC=ż